{
    "dev": {
        "awscloudformation": {
            "AuthRoleName": "resourcery-20190405171923-authRole",
            "UnauthRoleArn": "arn:aws:iam::357129611319:role/resourcery-20190405171923-unauthRole",
            "AuthRoleArn": "arn:aws:iam::357129611319:role/resourcery-20190405171923-authRole",
            "Region": "us-east-2",
            "DeploymentBucketName": "resourcery-20190405171923-deployment",
            "UnauthRoleName": "resourcery-20190405171923-unauthRole",
            "StackName": "resourcery-20190405171923",
            "StackId": "arn:aws:cloudformation:us-east-2:357129611319:stack/resourcery-20190405171923/ddbeb020-57f0-11e9-9b80-0a2e34a37100"
        },
        "categories": {
            "auth": {
                "cognitof7dade7a": {}
            }
        }
    },
    "resourcery": {
        "awscloudformation": {
            "AuthRoleName": "resourcery-resourcery-20190601193308-authRole",
            "UnauthRoleArn": "arn:aws:iam::357129611319:role/resourcery-resourcery-20190601193308-unauthRole",
            "AuthRoleArn": "arn:aws:iam::357129611319:role/resourcery-resourcery-20190601193308-authRole",
            "Region": "us-east-1",
            "DeploymentBucketName": "resourcery-resourcery-20190601193308-deployment",
            "UnauthRoleName": "resourcery-resourcery-20190601193308-unauthRole",
            "StackName": "resourcery-resourcery-20190601193308",
            "StackId": "arn:aws:cloudformation:us-east-1:357129611319:stack/resourcery-resourcery-20190601193308/ff02da90-84cd-11e9-9fe5-0e3e6f4b77b8"
        },
        "categories": {
            "auth": {
                "resourcery2a7b180d": {}
            }
        }
    }
}